multidimensional scaling of variables
…
data(qswur_usa)
print(qswur_usa)

## # A tibble: 612 × 13
##     year instit…¹ size  focus res     age status rk_ac…² rk_em…³ rk_ra…⁴ rk_ci…⁵
##    <int> <chr>    <fct> <fct> <fct> <int> <chr>    <int>   <int>   <int>   <int>
##  1  2017 MASSACH… M     CO    VH        5 B            6       4      12      10
##  2  2017 STANFOR… L     FC    VH        5 A            5       5      20      14
##  3  2017 HARVARD… L     FC    VH        5 B            1       1      42       8
##  4  2017 CALIFOR… S     CO    VH        5 B           23      90       3       4
##  5  2017 UNIVERS… L     FC    VH        5 B           13      47      54      49
##  6  2017 PRINCET… M     CO    VH        5 B           10      32     115       3
##  7  2017 YALE UN… L     FC    VH        5 B            9      12       4     138
##  8  2017 CORNELL… L     FC    VH        5 B           21      49     163      24
##  9  2017 JOHNS H… L     FC    VH        5 B           41     139      11      70
## 10  2017 UNIVERS… L     FC    VH        5 B           33      35      16     103
## # … with 602 more rows, 2 more variables: rk_intl_faculty <int>,
## #   rk_intl_students <int>, and abbreviated variable names ¹​institution,
## #   ²​rk_academic, ³​rk_employer, ⁴​rk_ratio, ⁵​rk_citations
…
qswur_usa %>%
  filter(year == 2020L) %>%
  select(institution, starts_with("rk_")) %>%
  mutate_at(
    vars(starts_with("rk_")),
    ~ match(., sort(unique(as.numeric(.))))
  ) %>%
  filter_at(vars(starts_with("rk_")), ~ ! is.na(.)) ->
  qswur_usa2020
print(qswur_usa2020)

## # A tibble: 38 × 7
##    institution                   rk_ac…¹ rk_em…² rk_ra…³ rk_ci…⁴ rk_in…⁵ rk_in…⁶
##    <chr>                           <int>   <int>   <int>   <int>   <int>   <int>
##  1 MASSACHUSETTS INSTITUTE OF T…       3       2       8       4       1       6
##  2 STANFORD UNIVERSITY                 2       3       5       7       2      21
##  3 HARVARD UNIVERSITY                  1       1      17       5       8      29
##  4 CALIFORNIA INSTITUTE OF TECH…      12      17       1       2       3      12
##  5 UNIVERSITY OF CHICAGO               9      11      19      22      20      14
##  6 PRINCETON UNIVERSITY                7       7      35       1      26      22
##  7 CORNELL UNIVERSITY                 11      13      40       9       5      19
##  8 UNIVERSITY OF PENNSYLVANIA         14      12      11      31      12      28
##  9 YALE UNIVERSITY                     6       4       2      46      17      37
## 10 COLUMBIA UNIVERSITY                 8       8      10      47      51       3
## # … with 28 more rows, and abbreviated variable names ¹​rk_academic,
## #   ²​rk_employer, ³​rk_ratio, ⁴​rk_citations, ⁵​rk_intl_faculty, ⁶​rk_intl_students
…
